(Exported by FreeCAD)
(Post Processor: linuxcnc_post)
(Output Time:2021-09-18 16:31:50.110237)
(begin preamble)
G17 G54 G40 G49 G80 G90
G21
(begin operation: Fixture)
(machine: not set, mm/min)
G54 
(finish operation: Fixture)
(begin operation: TC: 3.2mm Drill)
(machine: not set, mm/min)
(TC: 3.2mm Drill) 
M5
M6 T3 
G43 H3 
M3 S12000 
(finish operation: TC: 3.2mm Drill)
(begin operation: Drilling004)
(machine: not set, mm/min)
(Drilling004) 
(Begin Drilling) 
G0 Z10.000 
G90 
G99 
G83 X53.304 Y679.900 Z-16.000 F360.000 Q2.400 R1.000 
G80 
G0 Z7.000 
G83 X53.252 Y739.906 Z-16.000 F360.000 Q2.400 R1.000 
G80 
G0 Z7.000 
G83 X53.296 Y799.940 Z-16.000 F360.000 Q2.400 R1.000 
G80 
G0 Z7.000 
G83 X53.245 Y859.946 Z-16.000 F360.000 Q2.400 R1.000 
G80 
G0 Z7.000 
G83 X53.360 Y919.968 Z-16.000 F360.000 Q2.400 R1.000 
G80 
G0 Z7.000 
G83 X53.309 Y979.973 Z-16.000 F360.000 Q2.400 R1.000 
G80 
G0 Z7.000 
G83 X53.487 Y1039.967 Z-16.000 F360.000 Q2.400 R1.000 
G80 
G0 Z7.000 
G83 X53.436 Y1099.973 Z-16.000 F360.000 Q2.400 R1.000 
G80 
G0 Z7.000 
G83 X53.551 Y1159.994 Z-16.000 F360.000 Q2.400 R1.000 
G80 
G0 Z7.000 
G83 X53.500 Y1220.000 Z-16.000 F360.000 Q2.400 R1.000 
G80 
G0 Z7.000 
G0 Z10.000 
(finish operation: Drilling004)
(begin postamble)
M05
G17 G54 G90 G80 G40
M2
