(Exported by FreeCAD)
(Post Processor: linuxcnc_post)
(Output Time:2021-08-26 18:13:37.968238)
(begin preamble)
G17 G54 G40 G49 G80 G90
G21
(begin operation: Fixture)
(machine: not set, mm/min)
G54 
(finish operation: Fixture)
(begin operation: TC: 6mm_endmill)
(machine: not set, mm/min)
(TC: 6mm_endmill) 
M5
M6 T1 
G43 H1 
M3 S12000 
(finish operation: TC: 6mm_endmill)
(begin operation: DressupTag001)
(machine: not set, mm/min)
G0 Z10.000 
G0 X152.121 Y177.121 Z10.000 
G0 X152.121 Y177.121 Z7.000 
G1 X152.428 Y176.761 Z6.733 F1329.404 
G1 X152.674 Y176.361 Z6.458 F1314.656 
G1 X152.853 Y175.928 Z6.181 F1309.679 
G1 X152.962 Y175.472 Z5.907 F1314.656 
G1 X153.000 Y175.000 Z5.640 F1329.404 
G1 X153.000 Y169.562 Z2.500 F1320.000 
G1 X153.000 Y175.000 Z-0.640 F1320.000 
G1 X152.962 Y175.472 Z-0.907 F1329.404 
G1 X152.853 Y175.928 Z-1.181 F1314.656 
G1 X152.674 Y176.361 Z-1.458 F1309.679 
G1 X152.428 Y176.761 Z-1.733 F1314.656 
G1 X152.121 Y177.121 Z-2.000 F1329.404 
G2 X153.000 Y175.000 Z-2.000 I-2.121 J-2.121 F1800.000 
G1 X153.000 Y0.000 Z-2.000 F1800.000 
G2 X150.000 Y-3.000 Z-2.000 I-3.000 J0.000 F1800.000 
G1 X0.000 Y-3.000 Z-2.000 F1800.000 
G2 X-3.000 Y0.000 Z-2.000 I0.000 J3.000 F1800.000 
G1 X-3.000 Y175.000 Z-2.000 F1800.000 
G2 X0.000 Y178.000 Z-2.000 I3.000 J0.000 F1800.000 
G1 X150.000 Y178.000 Z-2.000 F1800.000 
G2 X152.121 Y177.121 Z-2.000 I0.000 J-3.000 F1800.000 
G1 X152.428 Y176.761 Z-2.267 F1329.404 
G1 X152.674 Y176.361 Z-2.542 F1314.656 
G1 X152.853 Y175.928 Z-2.819 F1309.679 
G1 X152.962 Y175.472 Z-3.093 F1314.656 
G1 X153.000 Y175.000 Z-3.360 F1329.404 
G1 X153.000 Y174.758 Z-3.500 F1320.000 
G1 X153.000 Y175.000 Z-3.640 F1320.000 
G1 X152.962 Y175.472 Z-3.907 F1329.404 
G1 X152.853 Y175.928 Z-4.181 F1314.656 
G1 X152.674 Y176.361 Z-4.458 F1309.679 
G1 X152.428 Y176.761 Z-4.733 F1314.656 
G1 X152.121 Y177.121 Z-5.000 F1329.404 
G2 X153.000 Y175.000 Z-5.000 I-2.121 J-2.121 F1800.000 
G1 X153.000 Y0.000 Z-5.000 F1800.000 
G2 X150.000 Y-3.000 Z-5.000 I-3.000 J0.000 F1800.000 
G1 X0.000 Y-3.000 Z-5.000 F1800.000 
G2 X-3.000 Y0.000 Z-5.000 I0.000 J3.000 F1800.000 
G1 X-3.000 Y175.000 Z-5.000 F1800.000 
G2 X0.000 Y178.000 Z-5.000 I3.000 J0.000 F1800.000 
G1 X150.000 Y178.000 Z-5.000 F1800.000 
G2 X152.121 Y177.121 Z-5.000 I0.000 J-3.000 F1800.000 
G1 X152.428 Y176.761 Z-5.267 F1329.404 
G1 X152.674 Y176.361 Z-5.542 F1314.656 
G1 X152.853 Y175.928 Z-5.819 F1309.679 
G1 X152.962 Y175.472 Z-6.093 F1314.656 
G1 X153.000 Y175.000 Z-6.360 F1329.404 
G1 X153.000 Y174.758 Z-6.500 F1320.000 
G1 X153.000 Y175.000 Z-6.640 F1320.000 
G1 X152.962 Y175.472 Z-6.907 F1329.404 
G1 X152.853 Y175.928 Z-7.181 F1314.656 
G1 X152.674 Y176.361 Z-7.458 F1309.679 
G1 X152.428 Y176.761 Z-7.733 F1314.656 
G1 X152.121 Y177.121 Z-8.000 F1329.404 
G2 X153.000 Y175.000 Z-8.000 I-2.121 J-2.121 F1800.000 
G1 X153.000 Y0.000 Z-8.000 F1800.000 
G2 X150.000 Y-3.000 Z-8.000 I-3.000 J0.000 F1800.000 
G1 X0.000 Y-3.000 Z-8.000 F1800.000 
G2 X-3.000 Y0.000 Z-8.000 I0.000 J3.000 F1800.000 
G1 X-3.000 Y175.000 Z-8.000 F1800.000 
G2 X0.000 Y178.000 Z-8.000 I3.000 J0.000 F1800.000 
G1 X150.000 Y178.000 Z-8.000 F1800.000 
G2 X152.121 Y177.121 Z-8.000 I0.000 J-3.000 F1800.000 
G1 X152.428 Y176.761 Z-8.267 F1329.404 
G1 X152.674 Y176.361 Z-8.542 F1314.656 
G1 X152.853 Y175.928 Z-8.819 F1309.679 
G1 X152.962 Y175.472 Z-9.093 F1314.656 
G1 X153.000 Y175.000 Z-9.360 F1329.404 
G1 X153.000 Y174.758 Z-9.500 F1320.000 
G1 X153.000 Y175.000 Z-9.640 F1320.000 
G1 X152.962 Y175.472 Z-9.907 F1329.404 
G1 X152.853 Y175.928 Z-10.181 F1314.656 
G1 X152.674 Y176.361 Z-10.458 F1309.679 
G1 X152.428 Y176.761 Z-10.733 F1314.656 
G1 X152.121 Y177.121 Z-11.000 F1329.404 
G2 X153.000 Y175.000 Z-11.000 I-2.121 J-2.121 F1800.000 
G1 X153.000 Y0.000 Z-11.000 F1800.000 
G2 X150.000 Y-3.000 Z-11.000 I-3.000 J0.000 F1800.000 
G1 X0.000 Y-3.000 Z-11.000 F1800.000 
G2 X-3.000 Y0.000 Z-11.000 I0.000 J3.000 F1800.000 
G1 X-3.000 Y175.000 Z-11.000 F1800.000 
G2 X0.000 Y178.000 Z-11.000 I3.000 J0.000 F1800.000 
G1 X150.000 Y178.000 Z-11.000 F1800.000 
G2 X152.121 Y177.121 Z-11.000 I0.000 J-3.000 F1800.000 
G1 X152.428 Y176.761 Z-11.267 F1329.404 
G1 X152.674 Y176.361 Z-11.542 F1314.656 
G1 X152.853 Y175.928 Z-11.819 F1309.679 
G1 X152.962 Y175.472 Z-12.093 F1314.656 
G1 X153.000 Y175.000 Z-12.360 F1329.404 
G1 X153.000 Y174.758 Z-12.500 F1320.000 
G1 X153.000 Y175.000 Z-12.640 F1320.000 
G1 X152.962 Y175.472 Z-12.907 F1329.404 
G1 X152.853 Y175.928 Z-13.181 F1314.656 
G1 X152.674 Y176.361 Z-13.458 F1309.679 
G1 X152.428 Y176.761 Z-13.733 F1314.656 
G1 X152.121 Y177.121 Z-14.000 F1329.404 
G2 X153.000 Y175.000 Z-14.000 I-2.121 J-2.121 F1800.000 
G1 X153.000 Y0.000 Z-14.000 F1800.000 
G2 X150.000 Y-3.000 Z-14.000 I-3.000 J0.000 F1800.000 
G1 X0.000 Y-3.000 Z-14.000 F1800.000 
G2 X-3.000 Y0.000 Z-14.000 I0.000 J3.000 F1800.000 
G1 X-3.000 Y175.000 Z-14.000 F1800.000 
G2 X0.000 Y178.000 Z-14.000 I3.000 J0.000 F1800.000 
G1 X150.000 Y178.000 Z-14.000 F1800.000 
G2 X152.121 Y177.121 Z-14.000 I0.000 J-3.000 F1800.000 
G1 X152.428 Y176.761 Z-14.267 F1329.404 
G1 X152.674 Y176.361 Z-14.542 F1314.656 
G1 X152.853 Y175.928 Z-14.819 F1309.679 
G1 X152.962 Y175.472 Z-15.093 F1314.656 
G1 X153.000 Y175.000 Z-15.360 F1329.404 
G1 X153.000 Y174.758 Z-15.500 F1320.000 
G1 X153.000 Y175.000 Z-15.640 F1320.000 
G1 X152.962 Y175.472 Z-15.907 F1329.404 
G1 X152.853 Y175.928 Z-16.181 F1314.656 
G1 X152.674 Y176.361 Z-16.458 F1309.679 
G1 X152.428 Y176.761 Z-16.733 F1314.656 
G1 X152.121 Y177.121 Z-17.000 F1329.404 
G2 X153.000 Y175.000 Z-17.000 I-2.121 J-2.121 F1800.000 
G1 X153.000 Y0.000 Z-17.000 F1800.000 
G2 X150.000 Y-3.000 Z-17.000 I-3.000 J0.000 F1800.000 
G1 X0.000 Y-3.000 Z-17.000 F1800.000 
G2 X-3.000 Y0.000 Z-17.000 I0.000 J3.000 F1800.000 
G1 X-3.000 Y175.000 Z-17.000 F1800.000 
G2 X0.000 Y178.000 Z-17.000 I3.000 J0.000 F1800.000 
G1 X150.000 Y178.000 Z-17.000 F1800.000 
G2 X152.121 Y177.121 Z-17.000 I0.000 J-3.000 F1800.000 
G1 X152.428 Y176.761 Z-17.267 F1329.404 
G1 X152.674 Y176.361 Z-17.542 F1314.656 
G1 X152.853 Y175.928 Z-17.819 F1309.679 
G1 X152.962 Y175.472 Z-18.093 F1314.656 
G1 X153.000 Y175.000 Z-18.360 F1329.404 
G1 X153.000 Y174.758 Z-18.500 F1320.000 
G1 X153.000 Y175.000 Z-18.640 F1320.000 
G1 X152.962 Y175.472 Z-18.907 F1329.404 
G1 X152.853 Y175.928 Z-19.181 F1314.656 
G1 X152.674 Y176.361 Z-19.458 F1309.679 
G1 X152.428 Y176.761 Z-19.733 F1314.656 
G1 X152.121 Y177.121 Z-20.000 F1329.404 
G2 X153.000 Y175.000 Z-20.000 I-2.121 J-2.121 F1800.000 
G1 X153.000 Y0.000 Z-20.000 F1800.000 
G2 X150.000 Y-3.000 Z-20.000 I-3.000 J0.000 F1800.000 
G1 X0.000 Y-3.000 Z-20.000 F1800.000 
G2 X-3.000 Y0.000 Z-20.000 I0.000 J3.000 F1800.000 
G1 X-3.000 Y175.000 Z-20.000 F1800.000 
G2 X0.000 Y178.000 Z-20.000 I3.000 J0.000 F1800.000 
G1 X150.000 Y178.000 Z-20.000 F1800.000 
G2 X152.121 Y177.121 Z-20.000 I0.000 J-3.000 F1800.000 
G1 X152.428 Y176.761 Z-20.267 F1329.404 
G1 X152.674 Y176.361 Z-20.542 F1314.656 
G1 X152.853 Y175.928 Z-20.819 F1309.679 
G1 X152.962 Y175.472 Z-21.093 F1314.656 
G1 X153.000 Y175.000 Z-21.360 F1329.404 
G1 X153.000 Y174.758 Z-21.500 F1320.000 
G1 X153.000 Y175.000 Z-21.640 F1320.000 
G1 X152.962 Y175.472 Z-21.907 F1329.404 
G1 X152.853 Y175.928 Z-22.181 F1314.656 
G1 X152.674 Y176.361 Z-22.458 F1309.679 
G1 X152.428 Y176.761 Z-22.733 F1314.656 
G1 X152.121 Y177.121 Z-23.000 F1329.404 
G2 X153.000 Y175.000 Z-23.000 I-2.121 J-2.121 F1800.000 
G1 X153.000 Y144.720 Z-23.000 F1800.000 
G1 X153.000 Y143.720 Z-22.000 F1080.000 
G1 X153.000 Y118.780 Z-22.000 F1800.000 
G1 X153.000 Y117.780 Z-23.000 F1080.000 
G1 X153.000 Y57.220 Z-23.000 F1800.000 
G1 X153.000 Y56.220 Z-22.000 F1080.000 
G1 X153.000 Y31.280 Z-22.000 F1800.000 
G1 X153.000 Y30.280 Z-23.000 F1080.000 
G1 X153.000 Y0.000 Z-23.000 F1800.000 
G2 X150.000 Y-3.000 Z-23.000 I-3.000 J0.000 F1800.000 
G1 X0.000 Y-3.000 Z-23.000 F1800.000 
G2 X-3.000 Y0.000 Z-23.000 I0.000 J3.000 F1800.000 
G1 X-3.000 Y30.280 Z-23.000 F1800.000 
G1 X-3.000 Y31.280 Z-22.000 F1080.000 
G1 X-3.000 Y56.220 Z-22.000 F1800.000 
G1 X-3.000 Y57.220 Z-23.000 F1080.000 
G1 X-3.000 Y117.780 Z-23.000 F1800.000 
G1 X-3.000 Y118.780 Z-22.000 F1080.000 
G1 X-3.000 Y143.720 Z-22.000 F1800.000 
G1 X-3.000 Y144.720 Z-23.000 F1080.000 
G1 X-3.000 Y154.980 Z-23.000 F1800.000 
G1 X-3.000 Y155.980 Z-22.000 F1080.000 
G1 X-3.000 Y175.000 Z-22.000 F1800.000 
G2 X0.000 Y178.000 Z-22.000 I3.000 J0.000 F1800.000 
G1 X5.019 Y178.000 Z-22.000 F1800.000 
G1 X6.499 Y178.000 Z-23.000 F1255.484 
G1 X61.360 Y178.000 Z-23.000 F1800.000 
G1 X62.360 Y178.000 Z-22.000 F1080.000 
G1 X87.300 Y178.000 Z-22.000 F1800.000 
G1 X88.300 Y178.000 Z-23.000 F1080.000 
G1 X150.000 Y178.000 Z-23.000 F1800.000 
G2 X152.121 Y177.121 Z-23.000 I0.000 J-3.000 F1800.000 
G1 X152.405 Y176.793 Z-23.248 F1323.798 
G1 X152.637 Y176.430 Z-23.500 F1315.496 
G1 X152.815 Y176.036 Z-23.752 F1315.496 
G1 X152.935 Y175.620 Z-24.000 F1323.798 
G1 X152.815 Y176.036 Z-24.248 F1323.798 
G1 X152.637 Y176.430 Z-24.500 F1315.496 
G1 X152.405 Y176.793 Z-24.752 F1315.496 
G1 X152.121 Y177.121 Z-25.000 F1323.798 
G2 X153.000 Y175.000 Z-25.000 I-2.121 J-2.121 F1800.000 
G1 X153.000 Y146.720 Z-25.000 F1800.000 
G1 X153.000 Y143.720 Z-22.000 F1080.000 
G1 X153.000 Y118.780 Z-22.000 F1800.000 
G1 X153.000 Y115.780 Z-25.000 F1080.000 
G1 X153.000 Y59.220 Z-25.000 F1800.000 
G1 X153.000 Y56.220 Z-22.000 F1080.000 
G1 X153.000 Y31.280 Z-22.000 F1800.000 
G1 X153.000 Y28.280 Z-25.000 F1080.000 
G1 X153.000 Y0.000 Z-25.000 F1800.000 
G2 X150.000 Y-3.000 Z-25.000 I-3.000 J0.000 F1800.000 
G1 X0.000 Y-3.000 Z-25.000 F1800.000 
G2 X-3.000 Y0.000 Z-25.000 I0.000 J3.000 F1800.000 
G1 X-3.000 Y28.280 Z-25.000 F1800.000 
G1 X-3.000 Y31.280 Z-22.000 F1080.000 
G1 X-3.000 Y56.220 Z-22.000 F1800.000 
G1 X-3.000 Y59.220 Z-25.000 F1080.000 
G1 X-3.000 Y115.780 Z-25.000 F1800.000 
G1 X-3.000 Y118.780 Z-22.000 F1080.000 
G1 X-3.000 Y143.720 Z-22.000 F1800.000 
G1 X-3.000 Y146.720 Z-25.000 F1080.000 
G1 X-3.000 Y152.980 Z-25.000 F1800.000 
G1 X-3.000 Y155.980 Z-22.000 F1080.000 
G1 X-3.000 Y175.000 Z-22.000 F1800.000 
G2 X0.000 Y178.000 Z-22.000 I3.000 J0.000 F1800.000 
G1 X5.019 Y178.000 Z-22.000 F1800.000 
G1 X5.372 Y178.000 Z-22.230 F1270.847 
G1 X5.732 Y178.000 Z-22.470 F1260.697 
G1 X7.323 Y178.000 Z-23.593 F1236.656 
G1 X9.170 Y178.000 Z-25.000 F1203.294 
G1 X59.360 Y178.000 Z-25.000 F1800.000 
G1 X62.360 Y178.000 Z-22.000 F1080.000 
G1 X87.300 Y178.000 Z-22.000 F1800.000 
G1 X90.300 Y178.000 Z-25.000 F1080.000 
G1 X150.000 Y178.000 Z-25.000 F1800.000 
G2 X152.121 Y177.121 Z-25.000 I0.000 J-3.000 F1800.000 
G0 X152.121 Y177.121 Z10.000 
(finish operation: DressupTag001)
(begin postamble)
M05
G17 G54 G90 G80 G40
M2
