(Exported by FreeCAD)
(Post Processor: linuxcnc_post)
(Output Time:2021-08-25 12:15:16.019970)
(begin preamble)
G17 G54 G40 G49 G80 G90
G21
(begin operation: Fixture)
(machine: not set, mm/min)
G54 
(finish operation: Fixture)
(begin operation: 3mm drill)
(machine: not set, mm/min)
(3mm drill) 
M5
M6 T4 
G43 H4 
M3 S12000 
(finish operation: 3mm drill)
(begin operation: Drilling001)
(machine: not set, mm/min)
(Drilling001) 
(Begin Drilling) 
G0 Z10.000 
G90 
G99 
G83 X20.020 Y120.024 Z-10.000 F360.000 Q2.250 R2.000 
G80 
G0 Z7.000 
G83 X30.067 Y120.030 Z-10.000 F360.000 Q2.250 R2.000 
G80 
G0 Z7.000 
G83 X39.998 Y120.028 Z-10.000 F360.000 Q2.250 R2.000 
G80 
G0 Z7.000 
G83 X50.045 Y120.034 Z-10.000 F360.000 Q2.250 R2.000 
G80 
G0 Z7.000 
G83 X60.012 Y120.036 Z-10.000 F360.000 Q2.250 R2.000 
G80 
G0 Z7.000 
G83 X70.059 Y120.043 Z-10.000 F360.000 Q2.250 R2.000 
G80 
G0 Z7.000 
G83 X79.990 Y120.040 Z-10.000 F360.000 Q2.250 R2.000 
G80 
G0 Z7.000 
G83 X90.037 Y120.046 Z-10.000 F360.000 Q2.250 R2.000 
G80 
G0 Z7.000 
G83 X100.029 Y120.009 Z-10.000 F360.000 Q2.250 R2.000 
G80 
G0 Z7.000 
G83 X109.979 Y120.009 Z-10.000 F360.000 Q2.250 R2.000 
G80 
G0 Z7.000 
G83 X120.068 Y119.992 Z-10.000 F360.000 Q2.250 R2.000 
G80 
G0 Z7.000 
G83 X130.019 Y119.992 Z-10.000 F360.000 Q2.250 R2.000 
G80 
G0 Z7.000 
G0 Z10.000 
(finish operation: Drilling001)
(begin postamble)
M05
G17 G54 G90 G80 G40
M2
