(Exported by FreeCAD)
(Post Processor: linuxcnc_post)
(Output Time:2021-08-26 15:52:05.177097)
(begin preamble)
G17 G54 G40 G49 G80 G90
G21
(begin operation: Fixture)
(machine: not set, mm/min)
G54 
(finish operation: Fixture)
(begin operation: TC: 6mm_endmill)
(machine: not set, mm/min)
(TC: 6mm_endmill) 
M5
M6 T1 
G43 H1 
M3 S12000 
(finish operation: TC: 6mm_endmill)
(begin operation: DressupTag005)
(machine: not set, mm/min)
G0 Z10.000 
G0 X166.121 Y394.464 Z10.000 
G0 X166.121 Y394.464 Z7.000 
G1 X166.428 Y394.103 Z6.733 F1329.404 
G1 X166.674 Y393.703 Z6.458 F1314.656 
G1 X166.853 Y393.271 Z6.181 F1309.679 
G1 X166.962 Y392.815 Z5.907 F1314.656 
G1 X167.000 Y392.343 Z5.640 F1329.404 
G1 X167.000 Y388.637 Z3.500 F1320.000 
G1 X167.000 Y392.343 Z1.360 F1320.000 
G1 X166.962 Y392.815 Z1.093 F1329.404 
G1 X166.853 Y393.271 Z0.819 F1314.656 
G1 X166.674 Y393.703 Z0.542 F1309.679 
G1 X166.428 Y394.103 Z0.267 F1314.656 
G1 X166.121 Y394.464 Z-0.000 F1329.404 
G2 X167.000 Y392.343 Z-0.000 I-2.121 J-2.121 F1800.000 
G1 X167.000 Y0.000 Z0.000 F1800.000 
G2 X164.000 Y-3.000 Z0.000 I-3.000 J0.000 F1800.000 
G1 X0.000 Y-3.000 Z0.000 F1800.000 
G2 X-3.000 Y0.000 Z0.000 I0.000 J3.000 F1800.000 
G1 X-3.000 Y392.343 Z0.000 F1800.000 
G2 X0.000 Y395.343 Z0.000 I3.000 J-0.000 F1800.000 
G1 X164.000 Y395.343 Z0.000 F1800.000 
G2 X166.121 Y394.464 Z0.000 I-0.000 J-3.000 F1800.000 
G1 X166.428 Y394.103 Z-0.267 F1329.404 
G1 X166.674 Y393.703 Z-0.542 F1314.656 
G1 X166.853 Y393.271 Z-0.819 F1309.679 
G1 X166.962 Y392.815 Z-1.093 F1314.656 
G1 X167.000 Y392.343 Z-1.360 F1329.404 
G1 X167.000 Y392.101 Z-1.500 F1320.000 
G1 X167.000 Y392.343 Z-1.640 F1320.000 
G1 X166.962 Y392.815 Z-1.907 F1329.404 
G1 X166.853 Y393.271 Z-2.181 F1314.656 
G1 X166.674 Y393.703 Z-2.458 F1309.679 
G1 X166.428 Y394.103 Z-2.733 F1314.656 
G1 X166.121 Y394.464 Z-3.000 F1329.404 
G2 X167.000 Y392.343 Z-3.000 I-2.121 J-2.121 F1800.000 
G1 X167.000 Y0.000 Z-3.000 F1800.000 
G2 X164.000 Y-3.000 Z-3.000 I-3.000 J0.000 F1800.000 
G1 X0.000 Y-3.000 Z-3.000 F1800.000 
G2 X-3.000 Y0.000 Z-3.000 I0.000 J3.000 F1800.000 
G1 X-3.000 Y392.343 Z-3.000 F1800.000 
G2 X0.000 Y395.343 Z-3.000 I3.000 J-0.000 F1800.000 
G1 X164.000 Y395.343 Z-3.000 F1800.000 
G2 X166.121 Y394.464 Z-3.000 I-0.000 J-3.000 F1800.000 
G1 X166.428 Y394.103 Z-3.267 F1329.404 
G1 X166.674 Y393.703 Z-3.542 F1314.656 
G1 X166.853 Y393.271 Z-3.819 F1309.679 
G1 X166.962 Y392.815 Z-4.093 F1314.656 
G1 X167.000 Y392.343 Z-4.360 F1329.404 
G1 X167.000 Y392.101 Z-4.500 F1320.000 
G1 X167.000 Y392.343 Z-4.640 F1320.000 
G1 X166.962 Y392.815 Z-4.907 F1329.404 
G1 X166.853 Y393.271 Z-5.181 F1314.656 
G1 X166.674 Y393.703 Z-5.458 F1309.679 
G1 X166.428 Y394.103 Z-5.733 F1314.656 
G1 X166.121 Y394.464 Z-6.000 F1329.404 
G2 X167.000 Y392.343 Z-6.000 I-2.121 J-2.121 F1800.000 
G1 X167.000 Y308.332 Z-6.000 F1800.000 
G1 X167.000 Y307.232 Z-4.900 F1080.000 
G1 X167.000 Y281.282 Z-4.900 F1800.000 
G1 X167.000 Y280.182 Z-6.000 F1080.000 
G1 X167.000 Y112.161 Z-6.000 F1800.000 
G1 X167.000 Y111.061 Z-4.900 F1080.000 
G1 X167.000 Y85.111 Z-4.900 F1800.000 
G1 X167.000 Y84.011 Z-6.000 F1080.000 
G1 X167.000 Y0.000 Z-6.000 F1800.000 
G2 X164.000 Y-3.000 Z-6.000 I-3.000 J0.000 F1800.000 
G1 X0.000 Y-3.000 Z-6.000 F1800.000 
G2 X-3.000 Y0.000 Z-6.000 I0.000 J3.000 F1800.000 
G1 X-3.000 Y84.011 Z-6.000 F1800.000 
G1 X-3.000 Y85.111 Z-4.900 F1080.000 
G1 X-3.000 Y111.061 Z-4.900 F1800.000 
G1 X-3.000 Y112.161 Z-6.000 F1080.000 
G1 X-3.000 Y280.182 Z-6.000 F1800.000 
G1 X-3.000 Y281.282 Z-4.900 F1080.000 
G1 X-3.000 Y307.232 Z-4.900 F1800.000 
G1 X-3.000 Y308.332 Z-6.000 F1080.000 
G1 X-3.000 Y392.343 Z-6.000 F1800.000 
G2 X0.000 Y395.343 Z-6.000 I3.000 J-0.000 F1800.000 
G1 X164.000 Y395.343 Z-6.000 F1800.000 
G2 X166.121 Y394.464 Z-6.000 I-0.000 J-3.000 F1800.000 
G1 X166.387 Y394.160 Z-6.233 F1320.902 
G1 X166.609 Y393.823 Z-6.467 F1317.290 
G1 X166.785 Y393.459 Z-6.700 F1320.902 
G1 X166.609 Y393.823 Z-6.933 F1320.902 
G1 X166.387 Y394.160 Z-7.167 F1317.290 
G1 X166.121 Y394.464 Z-7.400 F1320.902 
G2 X167.000 Y392.343 Z-7.400 I-2.121 J-2.121 F1800.000 
G1 X167.000 Y309.732 Z-7.400 F1800.000 
G1 X167.000 Y307.232 Z-4.900 F1080.000 
G1 X167.000 Y281.282 Z-4.900 F1800.000 
G1 X167.000 Y278.782 Z-7.400 F1080.000 
G1 X167.000 Y113.561 Z-7.400 F1800.000 
G1 X167.000 Y111.061 Z-4.900 F1080.000 
G1 X167.000 Y85.111 Z-4.900 F1800.000 
G1 X167.000 Y82.611 Z-7.400 F1080.000 
G1 X167.000 Y0.000 Z-7.400 F1800.000 
G2 X164.000 Y-3.000 Z-7.400 I-3.000 J0.000 F1800.000 
G1 X0.000 Y-3.000 Z-7.400 F1800.000 
G2 X-3.000 Y0.000 Z-7.400 I0.000 J3.000 F1800.000 
G1 X-3.000 Y82.611 Z-7.400 F1800.000 
G1 X-3.000 Y85.111 Z-4.900 F1080.000 
G1 X-3.000 Y111.061 Z-4.900 F1800.000 
G1 X-3.000 Y113.561 Z-7.400 F1080.000 
G1 X-3.000 Y278.782 Z-7.400 F1800.000 
G1 X-3.000 Y281.282 Z-4.900 F1080.000 
G1 X-3.000 Y307.232 Z-4.900 F1800.000 
G1 X-3.000 Y309.732 Z-7.400 F1080.000 
G1 X-3.000 Y392.343 Z-7.400 F1800.000 
G2 X0.000 Y395.343 Z-7.400 I3.000 J-0.000 F1800.000 
G1 X164.000 Y395.343 Z-7.400 F1800.000 
G2 X166.121 Y394.464 Z-7.400 I-0.000 J-3.000 F1800.000 
G0 X166.121 Y394.464 Z10.000 
(finish operation: DressupTag005)
(begin postamble)
M05
G17 G54 G90 G80 G40
M2
